{
  "name": "Remittance",
  "base": "PersistedModel",
  "strict": true,
  "idInjection": false,
  "options": {
    "validateUpsert": true
  },
  "properties": {
    "recipientAmount": {
      "type": "number",
      "comments": "cents"
    },
    "senderAmount": {
      "type": "number",
      "comments": "cents"
    },
    "recipientCc": {
      "type": "string",
      "comments": "\"za\""
    },
    "recipientCurrency": {
      "type": "string",
      "comments": "\"zar\""
    },
    "senderCc": {
      "type": "string",
      "comments": "\"us\""
    },
    "senderCurrency": {
      "type": "string",
      "comments": "\"usd\""
    },
    "created": {
      "type": "date",
      "comments": "default in model"
    },
    "lastUpdated": {
      "type": "date",
      "required": false,
      "defaultFn": "now",
      "comments": "default in model"
    }
  },
  "validations": [],
  "relations": {
    "sender": {
      "type": "belongsTo",
      "model": "Teller",
      "foreignKey": "senderId"
    },
    "recipient": {
      "type": "belongsTo",
      "model": "Teller",
      "foreignKey": "recipientId"
    }
  },
  "acls": [
    {
      "accessType": "*",
      "principalType": "ROLE",
      "principalId": "$everyone",
      "permission": "DENY"
    },
    {
      "accessType": "*",
      "principalType": "ROLE",
      "principalId": "$everyone",
      "permission": "ALLOW",
      "property": "sentAndReceived"
    },
    {
      "accessType": "*",
      "principalType": "ROLE",
      "principalId": "$everyone",
      "permission": "ALLOW",
      "property": "recipient"
    },
    {
      "accessType": "*",
      "principalType": "ROLE",
      "principalId": "$everyone",
      "permission": "ALLOW",
      "property": "new"
    }
  ],
  "methods": {}
}
