{
  "GeoPay": {
    "host": "pellefant-01.db.elephantsql.com",
    "port": 5432,
    "url": "postgres://zqexsffl:Qegg-cvb2BfuZvdrfWxJROOr358DZSD9@pellefant.db.elephantsql.com:5432/zqexsffl",
    "database": "zqexsffl",
    "password": "Qegg-cvb2BfuZvdrfWxJROOr358DZSD9",
    "name": "GeoPay",
    "user": "zqexsffl",
    "connector": "postgresql"
  }
}
